<?xml version="1.0" encoding="utf-8"?>
<!-- Generator: Adobe Illustrator 22.1.0, SVG Export Plug-In . SVG Version: 6.00 Build 0)  -->
<svg version="1.1" id="Capa_3" xmlns="http://www.w3.org/2000/svg" xmlns:xlink="http://www.w3.org/1999/xlink" x="0px" y="0px"
	 viewBox="0 0 501.8 137.8" style="enable-background:new 0 0 501.8 137.8;" xml:space="preserve">
<style type="text/css">
	.st0{fill:#404040;}
	.st1{fill:#034EA1;}
	.st2{fill:#B3B3B3;}
	.st3{fill:#FFF100;}
</style>
<g>
	<g>
		<path class="st0" d="M283.1,65.7c0-0.5,0.2-0.8,0.8-0.8h14c0.5,0,0.7,0.3,0.7,0.7V68c0,0.5-0.2,0.7-0.8,0.7h-10.4v6.5h9.2
			c0.5,0,0.8,0.2,0.8,0.7v2.4c0,0.5-0.2,0.7-0.8,0.7h-9.2v7.5h10.7c0.5,0,0.7,0.2,0.7,0.7v2.3c0,0.5-0.2,0.7-0.7,0.7h-14.2
			c-0.5,0-0.8-0.2-0.8-0.7V65.7z"/>
		<path class="st0" d="M317.9,90.1h-2.7c-0.6,0-0.7-0.3-0.7-0.7v-1.2h-0.1c-1.5,1-4.1,2.3-6.4,2.3c-5.1,0-5.6-3-5.6-7V72.3
			c0-0.5,0.2-0.8,0.7-0.8h2.8c0.5,0,0.7,0.3,0.7,0.8V83c0,2.3,0.5,3.7,2.8,3.7c1.6,0,4.1-1.2,5.1-1.7V72.3c0-0.5,0.2-0.8,0.7-0.8
			h2.7c0.5,0,0.7,0.3,0.7,0.8v17.1C318.6,89.9,318.5,90.1,317.9,90.1z"/>
		<path class="st0" d="M327.6,89.4c0,0.5-0.2,0.7-0.7,0.7h-2.8c-0.5,0-0.7-0.2-0.7-0.7V72.3c0-0.5,0.2-0.8,0.7-0.8h2.7
			c0.6,0,0.8,0.3,0.8,0.8V74l0.1,0.1c1.1-1.1,3.8-2.4,5.6-2.7c0.5-0.1,0.8,0,0.9,0.6l0.3,2.5c0,0.5,0.1,0.8-0.7,0.9
			c-2.1,0.4-4.8,1.2-6.2,1.7L327.6,89.4L327.6,89.4z"/>
		<path class="st0" d="M344.3,90.4c-7.6,0-8.1-5.6-8.1-9.9c0-3.6,0.8-9.4,8.1-9.4c7.4,0,8.4,4.9,8.4,9.4
			C352.7,84.9,352.2,90.4,344.3,90.4z M344.3,74.8c-3.2,0-4,2.1-4,6c0,4,0.7,6,3.9,6c3.5,0,4.1-1.9,4.1-6
			C348.4,76.8,347.8,74.8,344.3,74.8z"/>
		<path class="st0" d="M365.3,90.5c-1.3,0-3-0.2-4.7-0.8l0,0v6.7c0,0.4-0.1,0.8-0.7,0.8h-2.8c-0.6,0-0.7-0.3-0.7-0.8V72.3
			c0-0.5,0.2-0.8,0.7-0.8h2.7c0.5,0,0.7,0.3,0.7,0.8v1.1l0.1,0.1c1.4-1,3.8-2.3,6-2.3c5,0,6.3,3.8,6.3,9.5
			C372.8,86.9,371.3,90.5,365.3,90.5z M365.6,75c-1.6,0-4,1.1-5.1,1.7v9.5c1.7,0.5,3.1,0.6,4.4,0.6c2.7,0,3.7-1.4,3.7-6.2
			C368.5,75.9,367.6,75,365.6,75z"/>
		<path class="st0" d="M380.1,82c0.1,3.8,1.5,4.9,4.6,4.9c1.4,0,3.5-0.3,4.9-0.4c0.7-0.1,0.9-0.1,1,0.6l0.2,1.3
			c0.1,0.6,0,0.9-0.6,1.2c-1.5,0.6-4.3,0.9-6.1,0.9c-7.3,0-8.3-4.6-8.3-9.6c0-3.7,0.7-9.8,8.1-9.8c6.8,0,8,4.4,8.1,8.5
			c0,1.4-0.3,2.3-1.9,2.3h-10V82z M380.2,79.1h7.5c0-2.3-0.6-4.6-3.8-4.6C381.1,74.6,380.4,76.3,380.2,79.1z"/>
		<path class="st0" d="M407.3,88c-1.9,1.4-4.4,2.5-7,2.5c-4,0-5.2-2.2-5.2-5.4c0-4.4,2.4-6.3,7.1-6.3h4.9v-1c0-2.3-0.8-3.1-4-3.1
			c-1.3,0-3.6,0.2-5.2,0.3c-0.8,0.1-1,0.1-1.1-0.5l-0.3-1.4c-0.1-0.5,0-0.8,0.9-1.1c1.6-0.6,4.6-0.8,6.4-0.8c6.6,0,7.4,2.7,7.4,7
			v7.3c0,1.6,0.2,1.6,1.4,1.7c0.6,0,0.7,0.2,0.7,0.6v1.6c0,0.4-0.3,0.7-0.9,0.8c-0.6,0.1-1.2,0.2-1.8,0.2
			C408.8,90.3,407.7,89.8,407.3,88L407.3,88z M407,81.7h-4.6c-1.9,0-3.1,0.7-3.1,3.2c0,1.7,0.6,2.2,2.4,2.2c1.6,0,4-1,5.4-1.8
			L407,81.7L407,81.7z"/>
		<path class="st0" d="M431.4,90.1h-2.7c-0.5,0-0.7-0.2-0.7-0.7V78.7c0-2.2-0.5-3.7-2.7-3.7c-1.5,0-4.2,1.2-5.2,1.7v12.7
			c0,0.5-0.2,0.7-0.7,0.7h-2.7c-0.5,0-0.7-0.2-0.7-0.7V72.3c0-0.5,0.2-0.8,0.7-0.8h2.7c0.5,0,0.7,0.3,0.7,0.8v1.1h0.1
			c1.4-1,4.1-2.3,6.4-2.3c5.1,0,5.6,3.4,5.6,7.2v11C432.1,89.9,432,90.1,431.4,90.1z"/>
		<path class="st0" d="M293.3,104.6c1.9,0,4.9,0.3,7,1.1c0.6,0.3,0.8,0.6,0.7,1.2l-0.3,1.6c-0.1,0.5-0.3,0.6-1,0.6
			c-1.9-0.2-4.1-0.5-6.1-0.5c-5.2,0-5.9,4.2-5.9,9.1c0,5,1,8.9,5.9,8.9c2.2,0,4.1-0.2,6.1-0.5c0.7-0.1,0.9,0.1,1,0.6l0.3,1.4
			c0.2,0.6,0,1-0.6,1.2c-1.9,0.8-5.2,1.1-7,1.1c-8.5,0-10.3-6.3-10.3-12.7C283.1,111.3,284.7,104.6,293.3,104.6z"/>
		<path class="st0" d="M311.9,130.4c-7.6,0-8.1-5.6-8.1-9.9c0-3.6,0.8-9.4,8.1-9.4c7.4,0,8.4,4.9,8.4,9.4
			C320.3,124.9,319.7,130.4,311.9,130.4z M311.9,114.8c-3.2,0-4,2.1-4,6c0,4,0.7,6,3.9,6c3.5,0,4.1-1.9,4.1-6
			C316,116.8,315.4,114.8,311.9,114.8z"/>
		<path class="st0" d="M350.5,130.1h-2.7c-0.5,0-0.7-0.2-0.7-0.7v-10.8c0-2.8-0.7-3.6-2.6-3.6c-1.4,0-3.7,1.1-4.9,1.7
			c0,0.4,0,1.1,0,1.9v10.8c0,0.5-0.2,0.7-0.7,0.7h-2.8c-0.5,0-0.6-0.2-0.6-0.7v-11c0-2.3-0.6-3.4-2.5-3.4c-1.3,0-3.5,1-4.9,1.7v12.7
			c0,0.5-0.2,0.7-0.7,0.7h-2.7c-0.5,0-0.7-0.2-0.7-0.7v-17.1c0-0.5,0.2-0.8,0.7-0.8h2.7c0.6,0,0.8,0.3,0.8,0.8v1.1l0,0
			c1.5-1,3.6-2.2,5.7-2.2c2.2,0,4,0.5,5.2,2.7c1.9-1.4,4.3-2.7,6.7-2.7c5,0,5.5,3.3,5.5,7.1v11.2C351.2,129.9,351,130.1,350.5,130.1
			z"/>
		<path class="st0" d="M381.8,130.1h-2.7c-0.5,0-0.7-0.2-0.7-0.7v-10.8c0-2.8-0.7-3.6-2.6-3.6c-1.4,0-3.7,1.1-4.9,1.7
			c0,0.4,0,1.1,0,1.9v10.8c0,0.5-0.2,0.7-0.7,0.7h-2.8c-0.5,0-0.6-0.2-0.6-0.7v-11c0-2.3-0.6-3.4-2.5-3.4c-1.3,0-3.5,1-4.9,1.7v12.7
			c0,0.5-0.2,0.7-0.7,0.7H356c-0.5,0-0.7-0.2-0.7-0.7v-17.1c0-0.5,0.2-0.8,0.7-0.8h2.7c0.6,0,0.8,0.3,0.8,0.8v1.1l0,0
			c1.5-1,3.6-2.2,5.7-2.2c2.2,0,4,0.5,5.2,2.7c1.9-1.4,4.3-2.7,6.7-2.7c5,0,5.5,3.3,5.5,7.1v11.2
			C382.5,129.9,382.3,130.1,381.8,130.1z"/>
		<path class="st0" d="M389.3,108.8c-2,0-2.2-1.1-2.2-2.2c0-1.2,0.4-2.2,2.2-2.2c1.9,0,2.2,0.9,2.2,2.2
			C391.5,107.8,391.2,108.8,389.3,108.8z M391.3,129.4c0,0.4-0.2,0.7-0.7,0.7h-2.7c-0.5,0-0.8-0.2-0.8-0.7v-17.2
			c0-0.5,0.2-0.7,0.8-0.7h2.7c0.5,0,0.7,0.3,0.7,0.7V129.4z"/>
		<path class="st0" d="M402.2,130.4c-1.9,0-4.4-0.3-5.9-0.8c-0.8-0.3-0.9-0.6-0.8-1.3l0.3-1.3c0.1-0.6,0.4-0.6,1-0.6
			c1.7,0.3,4.1,0.5,5.4,0.5c2.4,0,3.4-0.6,3.4-2.2c0-1.7-0.6-2.1-3-2.5c-3.7-0.5-7-1.3-7-5.5c0-3.8,2.9-5.7,7.1-5.7
			c1.6,0,4.2,0.2,5.8,0.8c0.6,0.3,0.9,0.6,0.8,1.1l-0.3,1.4c-0.1,0.5-0.3,0.6-1,0.5c-1.6-0.2-3.8-0.4-5.2-0.4c-2.4,0-3,0.7-3,2.1
			c0,1.5,0.9,1.7,3.2,2.1c3.6,0.5,6.9,1.3,6.9,5.8C409.9,129,406.1,130.4,402.2,130.4z"/>
		<path class="st0" d="M419.7,130.4c-1.9,0-4.4-0.3-5.9-0.8c-0.8-0.3-0.9-0.6-0.8-1.3l0.3-1.3c0.1-0.6,0.4-0.6,1-0.6
			c1.7,0.3,4.1,0.5,5.4,0.5c2.4,0,3.4-0.6,3.4-2.2c0-1.7-0.6-2.1-3-2.5c-3.7-0.5-7-1.3-7-5.5c0-3.8,2.9-5.7,7.1-5.7
			c1.6,0,4.2,0.2,5.8,0.8c0.6,0.3,0.9,0.6,0.8,1.1l-0.3,1.4c-0.1,0.5-0.3,0.6-1,0.5c-1.6-0.2-3.8-0.4-5.2-0.4c-2.4,0-3,0.7-3,2.1
			c0,1.5,0.9,1.7,3.2,2.1c3.6,0.5,6.9,1.3,6.9,5.8C427.3,129,423.6,130.4,419.7,130.4z"/>
		<path class="st0" d="M433.5,108.8c-2,0-2.2-1.1-2.2-2.2c0-1.2,0.4-2.2,2.2-2.2c1.9,0,2.2,0.9,2.2,2.2
			C435.8,107.8,435.4,108.8,433.5,108.8z M435.6,129.4c0,0.4-0.2,0.7-0.7,0.7h-2.7c-0.5,0-0.8-0.2-0.8-0.7v-17.2
			c0-0.5,0.2-0.7,0.8-0.7h2.7c0.5,0,0.7,0.3,0.7,0.7V129.4z"/>
		<path class="st0" d="M448,130.4c-7.6,0-8.1-5.6-8.1-9.9c0-3.6,0.8-9.4,8.1-9.4c7.4,0,8.4,4.9,8.4,9.4
			C456.4,124.9,455.9,130.4,448,130.4z M448.1,114.8c-3.2,0-4,2.1-4,6c0,4,0.7,6,3.9,6c3.5,0,4.1-1.9,4.1-6
			C452.2,116.8,451.5,114.8,448.1,114.8z"/>
		<path class="st0" d="M475.5,130.1h-2.7c-0.5,0-0.7-0.2-0.7-0.7v-10.7c0-2.2-0.5-3.7-2.7-3.7c-1.5,0-4.2,1.2-5.2,1.7v12.7
			c0,0.5-0.2,0.7-0.7,0.7h-2.7c-0.5,0-0.7-0.2-0.7-0.7v-17.1c0-0.5,0.2-0.8,0.7-0.8h2.7c0.5,0,0.7,0.3,0.7,0.8v1.1h0.1
			c1.4-1,4.1-2.3,6.4-2.3c5.1,0,5.6,3.4,5.6,7.2v11C476.2,129.9,476.1,130.1,475.5,130.1z"/>
	</g>
	<polygon class="st1" points="500.2,130.1 500.2,53.8 493.7,53.8 493.7,130.1 	"/>
	<g>
		<path class="st2" d="M0.7,47.7c0,0,78.5-10.2,80.7-10.6c3.4-0.6,6.4-1.2,9.2-2c6.4-1.8,12.2-4.4,17.4-8c5-3.4,9.6-8.2,14.2-13.6
			c2.9-3.4,6-7.8,8.8-12.1v-2.1c-3.4,5-6.7,9.4-10.1,13.2c-4.5,5.1-9.3,9.3-14.2,12.4c-5,3.3-10.6,5.7-16.8,7.2
			c-2.7,0.7-5.7,1.3-9,1.7c-2.2,0.3-4.4,0.5-6.6,0.8c-0.9,0.1-73.7,7.9-73.7,7.9v5.2H0.7z"/>
		<path class="st2" d="M106,34.4c-4.9,2.8-10.6,4.9-16.9,6.2c-2.7,0.5-5.6,1-8.9,1.4c-2,0.2-3.9,0.4-5.9,0.6
			c-1.1,0.1-2.1,0.2-3.2,0.3c-24.1,2.2-48,4.5-70.4,6.7v5.1c22.6-2.7,46.7-5.6,70.7-8.4c1.1-0.1,2.1-0.2,3.2-0.4
			c2-0.2,3.9-0.4,5.9-0.7c3.4-0.5,6.4-1,9.2-1.6c6.5-1.5,12.4-3.8,17.5-6.9s9.5-7.3,14.3-12.6c3-3.3,6.3-7.9,9.4-12.2V10
			c-3.7,5-7.2,9.2-10.6,12.8C115.7,27.7,110.8,31.6,106,34.4z"/>
		<path class="st2" d="M119.7,33.2c-4.8,4.4-9.8,7.9-14.9,10.4c-5,2.4-10.5,4.1-17,5.2c-2.7,0.4-5.6,0.8-8.9,1.1L0.6,56.4v5.1
			l69.6-7.4l9-1c3.4-0.4,6.4-0.8,9-1.4c6.7-1.3,12.4-3.2,17.6-5.8c5.2-2.7,10.5-7.1,15.3-11.8c3.3-3.1,6.4-7.2,9.8-11.5v-1.7
			C127.1,25.7,123.4,29.8,119.7,33.2z"/>
		<path class="st2" d="M100.8,59.8c-4.6,2.6-8,4.1-14.5,4.7c-3.9,0.4-8,0.6-11.9,0.8c-1.9,0.1-3.8,0.2-5.7,0.3
			c-11.8,0.7-23.5,1.4-35.3,2.2L0.7,70v5.1L33.8,72c10.7-1,23.1-2.1,35.2-3.1l8.8-0.7c3.4-0.3,6.3-0.5,8.9-0.9
			c6.7-0.9,12.4-2.2,17.5-4.2c5.5-2.1,10.6-5.3,15.8-9c4.6-3.4,11.1-10.1,11.1-10.2v-1.8c-4.2,4.1-6.6,6.5-11.2,9.5
			C114.2,55.5,104.9,57.5,100.8,59.8z"/>
		<path class="st2" d="M102.4,69.5c-4.9,1.5-10.5,2.4-17,3c-2.6,0.2-5.5,0.4-8.7,0.5l-8.8,0.4c-21.8,1-43.4,2.2-67.3,3.4v5.1
			c22.8-1.8,45.2-3.5,67.5-5.1l8.7-0.6c3.4-0.2,6.2-0.5,8.8-0.8c6.7-0.8,12.4-1.9,17.4-3.5c5.6-1.8,11.1-4.4,16.2-7.7
			c3.8-2.4,7.6-5.4,11.6-8.9v-0.1c-4.4,3.8-8.5,4.6-12.7,7.1C113.2,65.5,107.9,67.9,102.4,69.5z"/>
		<path class="st2" d="M101.6,78c-5,1.2-10.4,1.9-17,2.4c-2.5,0.2-5.3,0.3-8.6,0.4l-8.7,0.3c-21.9,0.8-44,1.8-66.7,2.8V89
			c22.5-1.5,44.6-3.1,66.8-4.5l8.7-0.5c3.4-0.2,6.2-0.4,8.7-0.6c6.7-0.6,12.2-1.5,17.3-2.9c5.7-1.5,11.3-3.7,16.5-6.5
			c4-2.2,8.1-4.8,12.3-7.9v-2.2c-4.5,3.3-8.9,6-13.2,8.2C112.6,74.7,107.2,76.7,101.6,78z"/>
		<path class="st2" d="M100.9,86.3c-5,0.9-10.4,1.5-16.9,1.9c-2.5,0.1-5.1,0.2-8.6,0.3l-74.7,2v5.1L67,92.1l8.6-0.4
			c3.3-0.2,6.1-0.3,8.6-0.5c6.6-0.5,12.1-1.2,17.2-2.3c5.8-1.2,11.4-3,16.7-5.2c4.3-1.8,8.5-4,13-6.7v-2c-4.7,2.8-9.3,5-13.7,6.8
			C112,83.7,106.5,85.3,100.9,86.3z"/>
		<path class="st2" d="M100.3,94.7c-9.2,1.2-18.6,1.4-27.7,1.5c-2.1,0-4.2,0.1-6.3,0.1L0.7,97.5v5.1l65.7-2.9
			c2.1-0.1,4.2-0.2,6.3-0.3c9.2-0.4,18.7-0.8,28-2.2c5.9-0.9,11.5-2.3,16.8-4.1c4.4-1.5,8.9-3.4,13.5-5.6v-2
			c-4.8,2.3-9.6,4.1-14.1,5.6C111.6,92.7,106.1,93.9,100.3,94.7z"/>
		<path class="st2" d="M99.8,103.1c-8.6,0.7-17.4,0.7-25.9,0.7c-2.6,0-5.3,0-7.9,0c-21.7,0.1-43.3,0.3-65.3,0.5v5.1
			c20.9-0.7,43.1-1.5,65.3-2.1c2.6-0.1,5.3-0.2,7.9-0.2c8.5-0.2,17.4-0.4,26.1-1.4c6.1-0.7,11.6-1.6,16.9-2.9
			c4.6-1.1,9.3-2.7,14.1-4.5v-1.9c-4.9,1.8-9.8,3.2-14.6,4.3C111.2,101.8,105.7,102.6,99.8,103.1z"/>
		<path class="st2" d="M99.4,111.4c-3.6,0.1-7.5,0.2-11.9,0.2c-1.7,0-3.3,0-5,0l-16.9-0.2c-11.5-0.1-23-0.1-33.8-0.1H0.6v5.1
			l31.3-0.8c10.7-0.3,22.3-0.5,33.8-0.8l16.9-0.2c4.6-0.1,10.8-0.2,16.9-0.6c6.1-0.4,11.6-1,16.9-1.9c4.8-0.8,9.6-1.8,14.5-3.1v-1.8
			c-5,1.2-10,2.1-14.8,2.7C110.9,110.7,105.4,111.1,99.4,111.4z"/>
		<path class="st2" d="M82.4,119.4l-16.9-0.2c-21.5-0.3-43-0.7-64.9-1.1v5.1c20.9-0.1,43.1-0.3,64.9-0.5l16.9-0.3
			c5.7-0.1,11.2-0.2,16.9-0.4c11.6-0.4,22-1.2,31.7-2.5v-1.8c-9.7,1.1-20.1,1.6-31.7,1.7C93.6,119.4,88,119.4,82.4,119.4z"/>
		<polygon class="st2" points="131,128.4 0.7,125 0.7,130.1 131,130.1 		"/>
	</g>
	<g>
		<path class="st2" d="M119.2,42.8c-4.9,4-8.8,6.9-14.8,9.3c-5.3,2.1-10.9,3-17.4,3.9c-4.2,0.6-8.5,1.5-12.7,1.7
			c-1.7,0.1-3.4,0.2-5.1,0.4l-68.5,5v5.1l68.8-6.7l8.9-0.8c3.3-0.3,6.2-0.7,9-1.1c6.7-1.1,12.4-2.7,17.6-5
			c5.3-2.4,10.7-6.3,15.8-10.5c3.4-2.9,6.7-6.5,10.3-10.5v-1.8C126.6,36.1,123.1,39.7,119.2,42.8z"/>
	</g>
	<path class="st2" d="M186.4-0.6c0,0,23.4,37.3,27.7,44.2c4.3,6.8,9.2,12.3,26.5,15.9c17.3,3.7,24.9,5.4,24.9,5.4v1.3
		c0,0-11-2.4-25.2-5.5c-14.2-3.2-20-4.2-26.5-13.2c-5.4-7.5-27.5-39.3-27.5-39.3v-8.8H186.4z"/>
	<path class="st2" d="M186.4,42c0,0,21.3,22.4,27.5,28.8c6.5,6.8,14.9,9.3,26.6,11.4c11.1,2,25.1,4.3,25.1,4.3v1.3
		c0,0-13.1-2.2-25.1-4.2c-11.7-2-19.9-3.1-26.6-9.3c-6-5.5-27.4-25.6-27.4-25.6V42H186.4z"/>
	<path class="st2" d="M186.4,52.1c0,0,20.3,18.9,27.5,25.3c6.6,5.9,12,7.8,26.6,10.4c14.6,2.6,25,4.2,25,4.2v1.3
		c0,0-13.2-2.2-25.1-4.1c-11.9-1.9-19.5-2.6-26.6-8.4c-8.2-6.7-27.5-22.6-27.5-22.6v-6.1H186.4z"/>
	<path class="st2" d="M186.4,62.8c0,0,23.2,18.4,27.5,21.6s10.1,7,26.7,9.4c16.5,2.4,25,3.6,25,3.6v1.4c0,0-15-2.2-25-3.4
		c-10-1.3-17.7-1.8-26.6-7.8c-8.7-5.8-27.6-19.1-27.6-19.1V62.8z"/>
	<path class="st2" d="M186.4,73.2c0,0,23.3,15.5,27.7,17.9c4.4,2.4,9.6,6.4,26.6,8.6c17,2.2,25,3.1,25,3.1v1.3c0,0-14-1.5-25-2.7
		s-18.5-2.8-26.6-7.3c-8.2-4.5-27.5-15.8-27.5-15.8v-5.1H186.4z"/>
	<path class="st2" d="M186.4,83.5c0,0,20.6,11.2,27.5,14.7c7.8,3.9,14.5,5.8,26.6,7.2c11.9,1.4,25,2.8,25,2.8v1.3
		c0,0-12.1-1.3-25-2.5c-12.8-1.2-17.4-1.8-26.6-5.9c-8.3-3.7-27.5-12.6-27.5-12.6V83.5z"/>
	<path class="st2" d="M186.4,94c0,0,16.2,7,27.7,11.5c11.2,4.5,19.8,4.8,26.6,5.6c3,0.3,24.9,2.6,24.9,2.6v1.3c0,0-13.1-1-25-2.1
		c-11.9-1-17-1.5-26.6-4.7c-9.7-3.2-27.6-9.5-27.6-9.5V94z"/>
	<path class="st2" d="M186.4,104.6c0,0,16.4,5.1,27.6,8s21.5,4.1,26.6,4.5c5.2,0.4,25,2,25,2v1.2c0,0-11.3-0.8-25-1.8
		c-11.1-0.8-20.1-1.6-26.6-3.1c-7.3-1.6-27.5-6.4-27.5-6.4v-4.4H186.4z"/>
	<path class="st2" d="M186.4,115.1c0,0,13.4,2.3,27.6,4.7c10.6,1.8,25,2.9,26.6,2.9c1.5,0.1,25,1.7,25,1.7v1.3c0,0-15-0.8-25-1.3
		c-10.4-0.6-20.8-1.2-26.6-1.8c-13.2-1.4-27.5-3.2-27.5-3.2v-4.3H186.4z"/>
	<path class="st2" d="M186.4,126c0,0,21.2,0.8,27.6,0.9c6.4,0.1,51.6,2,51.6,2v1.2h-79.2V126z"/>
	<path class="st2" d="M240.6,65.3c-19.2-4.1-23.5-11.1-26.7-15.5c-3.2-4.3-27.4-39.8-27.4-39.8v8c1,1.2,21.7,28.4,27.5,35.9
		c6.6,8.4,16.8,10.4,26.6,12.5c9.8,2.1,25,5,25,5v-1.1C265.6,70.3,245.5,66.4,240.6,65.3z"/>
	<path class="st2" d="M240.6,70.9c-15.7-3.1-22.1-8-26.7-14.1c-4.6-6-27.4-36.1-27.4-36.1v7.6c1,1.1,21.8,25.9,27.4,32.3
		c6.5,7.5,15.7,9.4,26.7,11.5c11,2,25,4.7,25,4.7v-1.1C265.6,75.6,249.6,72.7,240.6,70.9z"/>
	<path class="st2" d="M240.6,76.7c-16.4-3.2-19.7-5.8-26.6-13.4c-4.4-4.8-26.6-31-27.5-32.1v7c0,0,20.8,22.2,27.4,28.7
		c8.8,8.6,17,9.2,26.7,11c9.7,1.7,25,4.5,25,4.5v-1.2C265.6,81.2,247.1,78,240.6,76.7z"/>
	<polygon class="st1" points="169,130.1 169,53.8 54.8,53.8 54.8,130.1 	"/>
	<g>
		<polygon class="st3" points="113.1,64.6 117.1,64.6 113.9,67.1 115.2,71.1 112,68.6 108.8,71.1 110,67.1 106.8,64.6 110.8,64.6 
			112,60.8 		"/>
		<polygon class="st3" points="113.3,115.6 117.3,115.6 114.1,118 115.3,121.8 112.1,119.4 108.9,121.8 110.2,118 107,115.6 
			110.9,115.6 112.1,111.8 		"/>
		<polygon class="st3" points="125.9,112.2 129.9,112.2 126.7,114.6 127.9,118.4 124.7,116 121.5,118.4 122.8,114.6 119.6,112.2 
			123.5,112.2 124.7,108.5 		"/>
		<polygon class="st3" points="125.9,68 129.9,68 126.7,70.4 127.9,74.2 124.7,71.9 121.5,74.2 122.8,70.4 119.6,68 123.5,68 
			124.7,64.3 		"/>
		<polygon class="st3" points="135.2,77.4 139.2,77.4 136,79.8 137.3,83.6 134.1,81.2 130.9,83.6 132.1,79.8 128.9,77.4 132.9,77.4 
			134.1,73.7 		"/>
		<polygon class="st3" points="135.2,103 139.2,103 136,105.4 137.3,109.2 134.1,106.8 130.9,109.2 132.1,105.4 128.9,103 
			132.9,103 134.1,99.2 		"/>
		<polygon class="st3" points="138.7,90 142.7,90 139.5,92.4 140.8,96.2 137.6,93.8 134.4,96.2 135.6,92.4 132.4,90 136.4,90 
			137.6,86.3 		"/>
		<polygon class="st3" points="100.3,68.1 104.3,68.1 101.1,70.5 102.3,74.3 99.1,71.9 95.9,74.3 97.2,70.5 94,68.1 97.9,68.1 
			99.1,64.3 		"/>
		<polygon class="st3" points="91.2,77.4 95.2,77.4 92,79.8 93.2,83.6 90,81.3 86.9,83.6 88.1,79.8 84.9,77.4 88.8,77.4 90,73.7 		
			"/>
		<polygon class="st3" points="87.8,90 91.8,90 88.6,92.4 89.9,96.2 86.7,93.9 83.5,96.2 84.7,92.4 81.5,90 85.5,90 86.7,86.3 		"/>
		<polygon class="st3" points="91.2,103 95.2,103 92,105.4 93.2,109.2 90,106.9 86.9,109.2 88.1,105.4 84.9,103 88.8,103 90,99.3 		
			"/>
		<polygon class="st3" points="100.4,112.2 104.4,112.2 101.2,114.6 102.4,118.4 99.3,116.1 96.1,118.4 97.3,114.6 94.1,112.2 
			98.1,112.2 99.3,108.5 		"/>
	</g>
</g>
</svg>
